<?xml version="1.0" encoding="utf-8"?>
<!-- Generator: Adobe Illustrator 22.1.0, SVG Export Plug-In . SVG Version: 6.00 Build 0)  -->
<svg version="1.1" id="Layer_1" xmlns="http://www.w3.org/2000/svg" xmlns:xlink="http://www.w3.org/1999/xlink" x="0px" y="0px"
	 viewBox="0 0 160 160" style="enable-background:new 0 0 160 160;" xml:space="preserve">
<style type="text/css">
	.st0{fill:#FFFFFF;}
	.st1{fill:none;stroke:#FFFFFF;stroke-width:4;stroke-miterlimit:10;}
</style>
<g>
	<g>
		<path class="st0" d="M124.6,116.3c0-1.7,0-3.4,0-5.1c2.4,0.3,4.7,0.6,7.1,0.9c0-22.6,0-45.2,0-67.8c-33.9,4.5-67.8,4.5-101.7,0
			c0,22.6,0,45.2,0,67.8c2.4-0.3,4.7-0.6,7.1-0.9c0,0.2,0,0.3,0,0.4c0,1.4,0,2.8,0,4.3c0,0.3-0.1,0.5-0.4,0.5
			c-2.6,0.3-5.2,0.7-7.7,1c-2.1,0.2-4-1.4-4.1-3.6c0-0.2,0-0.5,0-0.7c0-23.2,0-46.4,0-69.6c0-0.5,0-1.1,0.2-1.6
			c0.5-1.9,2.2-3,4.2-2.8c3.5,0.4,7.1,0.9,10.6,1.3c3.4,0.4,6.8,0.7,10.1,1c3.4,0.3,6.9,0.6,10.3,0.7c6.5,0.2,13,0.4,19.6,0.6
			c4,0.1,8.1,0,12.1-0.1c6.3-0.3,12.5-0.6,18.8-1c5.5-0.4,11-1.1,16.5-1.7c1.6-0.2,3.3-0.4,4.9-0.6c2.6-0.4,4.6,1.3,4.7,3.9
			c0,0.1,0,0.3,0,0.4c0,23.1,0,46.2,0,69.3c0,0.9,0,1.7-0.4,2.5c-0.7,1.4-2.2,2.3-3.7,2.1C130,117,127.3,116.6,124.6,116.3z"/>
		<path class="st0" d="M88.4,93.9c0,1.1,0,2.2,0,3.2c-0.2,3.7,1.3,6.5,4.5,8.4c0.3,0.2,0.4,0.3,0.4,0.6c0,4.8,0,9.7,0,14.5
			c0,0.1,0,0.2,0,0.4c-0.2,0-0.4,0-0.6,0c-16.4,0-32.8,0-49.2,0c-0.4,0-0.9-0.1-1.3-0.3c-0.6-0.3-0.7-0.9-0.7-1.5
			c0-6.8,0-13.6,0-20.4c0-1,0-2,0-3c0-1.3,0.6-2,1.9-2c6.8,0,13.6,0,20.4,0c8,0,15.9,0,23.9,0C87.9,93.9,88.1,93.9,88.4,93.9z"/>
		<path class="st0" d="M107.3,125.9c-0.1,0.3-0.1,0.4-0.2,0.5c-0.6,2.3-2.8,3.9-5.2,3.7c-2.5-0.3-4.4-2.3-4.4-4.8
			c0-7.3,0-14.6,0-21.9c0-0.2,0-0.5,0-0.8c-0.4-0.1-0.8-0.1-1.2-0.2c-2.2-0.5-3.6-2.2-3.6-4.5c0-4.9,0-9.8,0.1-14.7
			c0-3.9,2.1-6.7,5.4-8.5c3.5-1.9,7.3-2.3,11.2-2c2.6,0.2,5.2,0.9,7.4,2.2c2.6,1.6,4.4,3.8,4.9,6.9c0.2,1.3,0.1,2.6,0.1,3.9
			c0,4,0,8,0,12c0,3-1.5,4.6-4.5,4.8c-0.1,0-0.2,0-0.4,0c0,0.2,0,0.4,0,0.6c0,5.1,0,10.1,0,15.2c0,2.3,0,4.6,0,6.8
			c0,2.6-1.7,4.6-4.3,5c-2.3,0.3-4.6-1.3-5.2-3.7C107.4,126.2,107.4,126.1,107.3,125.9z"/>
		<path class="st0" d="M81.9,89.9c-8.6,0-17.1,0-25.5,0c-0.4-3.5,0.5-6.5,3.9-8.8c2.1-1.4,4.4-2,6.9-2.2c3.3-0.3,6.5,0.1,9.5,1.5
			c2.5,1.2,4.3,3.1,4.9,5.9C81.8,87.5,81.8,88.7,81.9,89.9z"/>
		<path class="st0" d="M99.2,62.7c0-4.5,3.6-8.2,8.2-8.2c4.5,0,8.2,3.7,8.2,8.2c0,4.5-3.7,8.2-8.2,8.2
			C102.9,70.9,99.2,67.3,99.2,62.7z"/>
		<path class="st0" d="M61.5,69.5c0-4.2,3.4-7.5,7.5-7.5c4.2,0,7.5,3.4,7.5,7.5c0,4.2-3.4,7.6-7.5,7.6
			C64.8,77.1,61.5,73.7,61.5,69.5z"/>
	</g>
	<circle class="st1" cx="80" cy="80" r="78"/>
</g>
</svg>
